<?xml version="1.0" encoding="UTF-8" standalone="no"?>
<!-- Created with Inkscape (http://www.inkscape.org/) -->

<svg
<<<<<<< HEAD
   xmlns:osb="http://www.openswatchbook.org/uri/2009/osb"
=======
>>>>>>> d576066728f97bfb0233e72a2b482ceec1b228f6
   xmlns:dc="http://purl.org/dc/elements/1.1/"
   xmlns:cc="http://creativecommons.org/ns#"
   xmlns:rdf="http://www.w3.org/1999/02/22-rdf-syntax-ns#"
   xmlns:svg="http://www.w3.org/2000/svg"
   xmlns="http://www.w3.org/2000/svg"
<<<<<<< HEAD
   xmlns:xlink="http://www.w3.org/1999/xlink"
=======
>>>>>>> d576066728f97bfb0233e72a2b482ceec1b228f6
   xmlns:sodipodi="http://sodipodi.sourceforge.net/DTD/sodipodi-0.dtd"
   xmlns:inkscape="http://www.inkscape.org/namespaces/inkscape"
   width="210mm"
   height="297mm"
   viewBox="0 0 744.09448819 1052.3622047"
   id="svg2"
   version="1.1"
   inkscape:version="0.91 r13725"
   sodipodi:docname="scheme.svg">
  <defs
<<<<<<< HEAD
     id="defs4">
    <linearGradient
       id="linearGradient7252"
       osb:paint="solid">
      <stop
         style="stop-color:#000000;stop-opacity:1;"
         offset="0"
         id="stop7254" />
    </linearGradient>
    <linearGradient
       id="linearGradient7244"
       osb:paint="solid">
      <stop
         style="stop-color:#000000;stop-opacity:1;"
         offset="0"
         id="stop7246" />
    </linearGradient>
    <linearGradient
       id="linearGradient7483"
       osb:paint="solid">
      <stop
         style="stop-color:#000000;stop-opacity:1;"
         offset="0"
         id="stop7485" />
    </linearGradient>
    <linearGradient
       id="linearGradient7471"
       osb:paint="solid">
      <stop
         style="stop-color:#ffffff;stop-opacity:1;"
         offset="0"
         id="stop7473" />
    </linearGradient>
    <linearGradient
       id="linearGradient7463"
       osb:paint="solid">
      <stop
         style="stop-color:#ffffff;stop-opacity:1;"
         offset="0"
         id="stop7465" />
    </linearGradient>
    <linearGradient
       id="linearGradient7453"
       osb:paint="solid">
      <stop
         style="stop-color:#ffff00;stop-opacity:1;"
         offset="0"
         id="stop7455" />
    </linearGradient>
    <linearGradient
       id="linearGradient7443"
       osb:paint="solid">
      <stop
         style="stop-color:#ffffff;stop-opacity:1;"
         offset="0"
         id="stop7445" />
    </linearGradient>
    <linearGradient
       id="linearGradient7435"
       osb:paint="solid">
      <stop
         style="stop-color:#ffffff;stop-opacity:1;"
         offset="0"
         id="stop7437" />
    </linearGradient>
    <linearGradient
       id="linearGradient7429"
       osb:paint="solid">
      <stop
         style="stop-color:#ffffff;stop-opacity:1;"
         offset="0"
         id="stop7431" />
    </linearGradient>
    <linearGradient
       id="linearGradient7423"
       osb:paint="solid">
      <stop
         style="stop-color:#ffffff;stop-opacity:1;"
         offset="0"
         id="stop7425" />
    </linearGradient>
    <linearGradient
       id="linearGradient7417"
       osb:paint="solid">
      <stop
         style="stop-color:#ffffff;stop-opacity:1;"
         offset="0"
         id="stop7419" />
    </linearGradient>
    <linearGradient
       id="linearGradient7411"
       osb:paint="solid">
      <stop
         style="stop-color:#000000;stop-opacity:1;"
         offset="0"
         id="stop7413" />
    </linearGradient>
    <linearGradient
       id="linearGradient7405"
       osb:paint="solid">
      <stop
         style="stop-color:#ffffff;stop-opacity:1;"
         offset="0"
         id="stop7407" />
    </linearGradient>
    <linearGradient
       id="linearGradient7399"
       osb:paint="solid">
      <stop
         style="stop-color:#ffffff;stop-opacity:1;"
         offset="0"
         id="stop7401" />
    </linearGradient>
    <linearGradient
       id="linearGradient7393"
       osb:paint="solid">
      <stop
         style="stop-color:#ffffff;stop-opacity:1;"
         offset="0"
         id="stop7395" />
    </linearGradient>
    <linearGradient
       id="linearGradient7387"
       osb:paint="solid">
      <stop
         style="stop-color:#ffffff;stop-opacity:1;"
         offset="0"
         id="stop7389" />
    </linearGradient>
    <linearGradient
       id="linearGradient7381"
       osb:paint="solid">
      <stop
         style="stop-color:#ffffff;stop-opacity:1;"
         offset="0"
         id="stop7383" />
    </linearGradient>
    <linearGradient
       id="linearGradient7373"
       osb:paint="solid">
      <stop
         style="stop-color:#ffffff;stop-opacity:1;"
         offset="0"
         id="stop7375" />
    </linearGradient>
    <linearGradient
       id="linearGradient7363"
       osb:paint="solid">
      <stop
         style="stop-color:#000000;stop-opacity:1;"
         offset="0"
         id="stop7365" />
    </linearGradient>
    <linearGradient
       id="linearGradient7357"
       osb:paint="solid">
      <stop
         style="stop-color:#a456fb;stop-opacity:1;"
         offset="0"
         id="stop7359" />
    </linearGradient>
    <linearGradient
       id="linearGradient7351"
       osb:paint="solid">
      <stop
         style="stop-color:#ffffff;stop-opacity:1;"
         offset="0"
         id="stop7353" />
    </linearGradient>
    <linearGradient
       id="linearGradient7345"
       osb:paint="solid">
      <stop
         style="stop-color:#a456fb;stop-opacity:1;"
         offset="0"
         id="stop7347" />
    </linearGradient>
    <linearGradient
       id="linearGradient7339"
       osb:paint="solid">
      <stop
         style="stop-color:#ffffff;stop-opacity:1;"
         offset="0"
         id="stop7341" />
    </linearGradient>
    <linearGradient
       inkscape:collect="always"
       xlink:href="#linearGradient7345"
       id="linearGradient7349"
       x1="127.27921"
       y1="177.51102"
       x2="539.2748"
       y2="177.51102"
       gradientUnits="userSpaceOnUse" />
    <linearGradient
       inkscape:collect="always"
       xlink:href="#linearGradient7345"
       id="linearGradient7355"
       x1="264.60046"
       y1="167.7346"
       x2="266.60046"
       y2="167.7346"
       gradientUnits="userSpaceOnUse" />
    <linearGradient
       inkscape:collect="always"
       xlink:href="#linearGradient7357"
       id="linearGradient7361"
       x1="505.04352"
       y1="128.63878"
       x2="544.93121"
       y2="128.63878"
       gradientUnits="userSpaceOnUse" />
    <linearGradient
       inkscape:collect="always"
       xlink:href="#linearGradient7357"
       id="linearGradient7371"
       gradientUnits="userSpaceOnUse"
       gradientTransform="translate(1.9024779e-6,-1.136647e-7)"
       x1="505.04352"
       y1="128.63878"
       x2="544.93121"
       y2="128.63878" />
    <linearGradient
       inkscape:collect="always"
       xlink:href="#linearGradient7357"
       id="linearGradient7377"
       x1="313.5827"
       y1="307.27612"
       x2="351.81754"
       y2="307.27612"
       gradientUnits="userSpaceOnUse" />
    <linearGradient
       inkscape:collect="always"
       xlink:href="#linearGradient7357"
       id="linearGradient7379"
       x1="313.20078"
       y1="378.25302"
       x2="332.56772"
       y2="378.25302"
       gradientUnits="userSpaceOnUse" />
    <linearGradient
       inkscape:collect="always"
       xlink:href="#linearGradient7357"
       id="linearGradient7385"
       x1="313.5827"
       y1="256.9483"
       x2="351.81754"
       y2="256.9483"
       gradientUnits="userSpaceOnUse" />
    <linearGradient
       inkscape:collect="always"
       xlink:href="#linearGradient7357"
       id="linearGradient7391"
       x1="447.78204"
       y1="264.9483"
       x2="488.40878"
       y2="264.9483"
       gradientUnits="userSpaceOnUse" />
    <linearGradient
       inkscape:collect="always"
       xlink:href="#linearGradient7357"
       id="linearGradient7397"
       x1="535.89612"
       y1="230.79089"
       x2="537.89612"
       y2="230.79089"
       gradientUnits="userSpaceOnUse" />
    <linearGradient
       inkscape:collect="always"
       xlink:href="#linearGradient7357"
       id="linearGradient7403"
       x1="584.37329"
       y1="264.9483"
       x2="610.11182"
       y2="264.9483"
       gradientUnits="userSpaceOnUse" />
    <linearGradient
       inkscape:collect="always"
       xlink:href="#linearGradient7357"
       id="linearGradient7415"
       x1="265.60043"
       y1="230.79091"
       x2="265.60043"
       y2="230.79091"
       gradientUnits="userSpaceOnUse" />
    <linearGradient
       inkscape:collect="always"
       xlink:href="#linearGradient7345"
       id="linearGradient7421"
       x1="350.81754"
       y1="264.9483"
       x2="448.78204"
       y2="264.9483"
       gradientUnits="userSpaceOnUse" />
    <linearGradient
       inkscape:collect="always"
       xlink:href="#linearGradient7345"
       id="linearGradient7427"
       x1="487.40878"
       y1="264.9483"
       x2="585.37329"
       y2="264.9483"
       gradientUnits="userSpaceOnUse" />
    <linearGradient
       inkscape:collect="always"
       xlink:href="#linearGradient7345"
       id="linearGradient7433"
       x1="609.11182"
       y1="264.9483"
       x2="707.07629"
       y2="264.9483"
       gradientUnits="userSpaceOnUse" />
    <linearGradient
       inkscape:collect="always"
       xlink:href="#linearGradient7357"
       id="linearGradient7439"
       x1="216.61819"
       y1="196.6335"
       x2="314.5827"
       y2="196.6335"
       gradientUnits="userSpaceOnUse" />
    <linearGradient
       inkscape:collect="always"
       xlink:href="#linearGradient7357"
       id="linearGradient7441"
       x1="487.91388"
       y1="196.6335"
       x2="585.87836"
       y2="196.6335"
       gradientUnits="userSpaceOnUse" />
    <linearGradient
       inkscape:collect="always"
       xlink:href="#linearGradient7453"
       id="linearGradient7457"
       x1="171.45934"
       y1="340.52197"
       x2="217.61819"
       y2="340.52197"
       gradientUnits="userSpaceOnUse" />
    <linearGradient
       inkscape:collect="always"
       xlink:href="#linearGradient7453"
       id="linearGradient7459"
       x1="127.27921"
       y1="302.44405"
       x2="217.61819"
       y2="302.44405"
       gradientUnits="userSpaceOnUse" />
    <linearGradient
       inkscape:collect="always"
       xlink:href="#linearGradient7453"
       id="linearGradient7461"
       x1="-11.919487"
       y1="340.52197"
       x2="31.314716"
       y2="340.52197"
       gradientUnits="userSpaceOnUse" />
    <linearGradient
       inkscape:collect="always"
       xlink:href="#linearGradient7453"
       id="linearGradient7467"
       x1="-108.88398"
       y1="340.52197"
       x2="-10.919487"
       y2="340.52197"
       gradientUnits="userSpaceOnUse" />
    <linearGradient
       inkscape:collect="always"
       xlink:href="#linearGradient7453"
       id="linearGradient7469"
       x1="30.314716"
       y1="340.52197"
       x2="128.27921"
       y2="340.52197"
       gradientUnits="userSpaceOnUse" />
    <linearGradient
       inkscape:collect="always"
       xlink:href="#linearGradient7357"
       id="linearGradient7475"
       x1="216.23627"
       y1="415.6561"
       x2="314.20078"
       y2="415.6561"
       gradientUnits="userSpaceOnUse" />
    <linearGradient
       inkscape:collect="always"
       xlink:href="#linearGradient7357"
       id="linearGradient7477"
       x1="30.31472"
       y1="198.19138"
       x2="128.27921"
       y2="198.19138"
       gradientUnits="userSpaceOnUse" />
    <linearGradient
       inkscape:collect="always"
       xlink:href="#linearGradient7345"
       id="linearGradient7535"
       gradientUnits="userSpaceOnUse"
       x1="176.92839"
       y1="153.38217"
       x2="249.59685"
       y2="153.38217" />
    <linearGradient
       gradientTransform="translate(5.6799316e-6,253.21052)"
       inkscape:collect="always"
       xlink:href="#linearGradient7453"
       id="linearGradient7469-5"
       x1="30.314716"
       y1="340.52197"
       x2="128.27921"
       y2="340.52197"
       gradientUnits="userSpaceOnUse" />
    <linearGradient
       gradientTransform="matrix(1.9354681,0,0,1.9354681,-203.57486,-65.336906)"
       inkscape:collect="always"
       xlink:href="#linearGradient7453"
       id="linearGradient7457-0"
       x1="171.45934"
       y1="340.52197"
       x2="217.61819"
       y2="340.52197"
       gradientUnits="userSpaceOnUse" />
    <linearGradient
       inkscape:collect="always"
       xlink:href="#linearGradient7453"
       id="linearGradient7256"
       x1="217.61819"
       y1="440.08331"
       x2="528.34851"
       y2="440.08331"
       gradientUnits="userSpaceOnUse" />
  </defs>
=======
     id="defs4" />
>>>>>>> d576066728f97bfb0233e72a2b482ceec1b228f6
  <sodipodi:namedview
     id="base"
     pagecolor="#000000"
     bordercolor="#666666"
     borderopacity="1.0"
     inkscape:pageopacity="0"
     inkscape:pageshadow="2"
<<<<<<< HEAD
     inkscape:zoom="0.84603247"
     inkscape:cx="643.69561"
     inkscape:cy="652.37525"
=======
     inkscape:zoom="1.6738662"
     inkscape:cx="423.97821"
     inkscape:cy="825.29463"
>>>>>>> d576066728f97bfb0233e72a2b482ceec1b228f6
     inkscape:document-units="px"
     inkscape:current-layer="layer1"
     showgrid="false"
     inkscape:snap-global="true"
     inkscape:snap-object-midpoints="true"
     inkscape:snap-nodes="true"
     inkscape:snap-bbox="true"
     inkscape:bbox-paths="true"
     inkscape:bbox-nodes="true"
     inkscape:snap-bbox-edge-midpoints="true"
     inkscape:snap-bbox-midpoints="true"
     inkscape:snap-center="true"
     inkscape:snap-text-baseline="true"
     inkscape:snap-page="true"
     inkscape:snap-midpoints="true"
     inkscape:snap-smooth-nodes="true"
     inkscape:snap-intersection-paths="true"
     inkscape:object-paths="true"
     inkscape:object-nodes="true"
<<<<<<< HEAD
     inkscape:window-width="2560"
     inkscape:window-height="1370"
     inkscape:window-x="0"
     inkscape:window-y="1"
=======
     inkscape:window-width="1440"
     inkscape:window-height="811"
     inkscape:window-x="0"
     inkscape:window-y="0"
>>>>>>> d576066728f97bfb0233e72a2b482ceec1b228f6
     inkscape:window-maximized="1" />
  <metadata
     id="metadata7">
    <rdf:RDF>
      <cc:Work
         rdf:about="">
        <dc:format>image/svg+xml</dc:format>
        <dc:type
           rdf:resource="http://purl.org/dc/dcmitype/StillImage" />
<<<<<<< HEAD
        <dc:title />
=======
        <dc:title></dc:title>
>>>>>>> d576066728f97bfb0233e72a2b482ceec1b228f6
      </cc:Work>
    </rdf:RDF>
  </metadata>
  <g
     inkscape:label="Layer 1"
     inkscape:groupmode="layer"
     id="layer1">
    <rect
<<<<<<< HEAD
       style="fill:none;fill-opacity:1;stroke:url(#linearGradient7467);stroke-width:1.99999988;stroke-miterlimit:4;stroke-dasharray:none;stroke-dashoffset:0;stroke-opacity:1"
       id="rect7037"
       width="95.964493"
       height="35.989941"
       x="-107.88398"
=======
       style="fill:none;fill-opacity:1;stroke:#ffffff;stroke-width:1.99999988;stroke-miterlimit:4;stroke-dasharray:none;stroke-dashoffset:0;stroke-opacity:1"
       id="rect7037"
       width="95.964493"
       height="35.989941"
       x="31.31472"
>>>>>>> d576066728f97bfb0233e72a2b482ceec1b228f6
       y="322.52701" />
    <text
       xml:space="preserve"
       style="font-style:normal;font-variant:normal;font-weight:normal;font-stretch:normal;font-size:15.53876495px;line-height:125%;font-family:'Marr Sans';-inkscape-font-specification:'Marr Sans';text-align:center;letter-spacing:0px;word-spacing:0px;text-anchor:middle;fill:#ffffff;fill-opacity:1;stroke:none;stroke-width:1px;stroke-linecap:butt;stroke-linejoin:miter;stroke-opacity:1"
<<<<<<< HEAD
       x="-59.909363"
=======
       x="78.000679"
>>>>>>> d576066728f97bfb0233e72a2b482ceec1b228f6
       y="348.86127"
       id="text7039"
       sodipodi:linespacing="125%"
       transform="scale(1.0093442,0.9907423)"><tspan
         sodipodi:role="line"
         id="tspan7041"
<<<<<<< HEAD
         x="-59.909363"
         y="348.86127">frequency</tspan></text>
    <rect
       style="fill:none;fill-opacity:1;stroke:url(#linearGradient7477);stroke-width:1.99999988;stroke-miterlimit:4;stroke-dasharray:none;stroke-dashoffset:0;stroke-opacity:1"
=======
         x="78.000679"
         y="348.86127">frequency</tspan></text>
    <rect
       style="fill:none;fill-opacity:1;stroke:#ffffff;stroke-width:1.99999988;stroke-miterlimit:4;stroke-dasharray:none;stroke-dashoffset:0;stroke-opacity:1"
>>>>>>> d576066728f97bfb0233e72a2b482ceec1b228f6
       id="rect7037-9"
       width="95.964493"
       height="35.989941"
       x="31.31472"
       y="180.19641" />
    <text
       xml:space="preserve"
       style="font-style:normal;font-variant:normal;font-weight:normal;font-stretch:normal;font-size:15.53876495px;line-height:125%;font-family:'Marr Sans';-inkscape-font-specification:'Marr Sans';text-align:center;letter-spacing:0px;word-spacing:0px;text-anchor:middle;fill:#ffffff;fill-opacity:1;stroke:none;stroke-width:1px;stroke-linecap:butt;stroke-linejoin:miter;stroke-opacity:1"
       x="76.397827"
       y="205.20076"
       id="text7039-3"
       sodipodi:linespacing="125%"
       transform="scale(1.0093442,0.9907423)"><tspan
         sodipodi:role="line"
         id="tspan7041-2"
         x="76.397827"
         y="205.20076">dc</tspan></text>
    <rect
<<<<<<< HEAD
       style="fill:none;fill-opacity:1;stroke:url(#linearGradient7427);stroke-width:1.99999988;stroke-miterlimit:4;stroke-dasharray:none;stroke-dashoffset:0;stroke-opacity:1"
=======
       style="fill:none;fill-opacity:1;stroke:#ffffff;stroke-width:1.99999988;stroke-miterlimit:4;stroke-dasharray:none;stroke-dashoffset:0;stroke-opacity:1"
>>>>>>> d576066728f97bfb0233e72a2b482ceec1b228f6
       id="rect7037-2"
       width="95.964493"
       height="35.989941"
       x="488.40878"
       y="246.95332" />
    <text
       xml:space="preserve"
       style="font-style:normal;font-variant:normal;font-weight:normal;font-stretch:normal;font-size:15.53876495px;line-height:125%;font-family:'Marr Sans';-inkscape-font-specification:'Marr Sans';text-align:center;letter-spacing:0px;word-spacing:0px;text-anchor:middle;fill:#ffffff;fill-opacity:1;stroke:none;stroke-width:1px;stroke-linecap:butt;stroke-linejoin:miter;stroke-opacity:1"
       x="530.8631"
       y="272.58145"
       id="text7039-2"
       sodipodi:linespacing="125%"
       transform="scale(1.0093442,0.9907423)"><tspan
         sodipodi:role="line"
         x="530.8631"
         y="272.58145"
         id="tspan7085">filter</tspan></text>
    <rect
<<<<<<< HEAD
       style="fill:none;fill-opacity:1;stroke:url(#linearGradient7433);stroke-width:1.99999988;stroke-miterlimit:4;stroke-dasharray:none;stroke-dashoffset:0;stroke-opacity:1"
=======
       style="fill:none;fill-opacity:1;stroke:#ffffff;stroke-width:1.99999988;stroke-miterlimit:4;stroke-dasharray:none;stroke-dashoffset:0;stroke-opacity:1"
>>>>>>> d576066728f97bfb0233e72a2b482ceec1b228f6
       id="rect7037-2-4"
       width="95.964493"
       height="35.989941"
       x="610.11182"
       y="246.95332" />
    <text
       xml:space="preserve"
       style="font-style:normal;font-variant:normal;font-weight:normal;font-stretch:normal;font-size:13.75px;line-height:125%;font-family:'Marr Sans';-inkscape-font-specification:'Marr Sans';text-align:center;letter-spacing:0px;word-spacing:0px;text-anchor:middle;fill:#ffffff;fill-opacity:1;stroke:none;stroke-width:1px;stroke-linecap:butt;stroke-linejoin:miter;stroke-opacity:1"
       x="651.43945"
       y="272.58145"
       id="text7039-2-6"
       sodipodi:linespacing="125%"
       transform="scale(1.0093442,0.9907423)"><tspan
         sodipodi:role="line"
         x="651.43945"
         y="272.58145"
         id="tspan7085-2">ampEnvelope</tspan></text>
    <rect
       style="fill:none;fill-opacity:1;stroke:#ffffff;stroke-width:1.99999988;stroke-miterlimit:4;stroke-dasharray:none;stroke-dashoffset:0;stroke-opacity:1"
       id="rect7037-5"
       width="95.964493"
       height="35.989941"
       x="217.61819"
       y="246.95334" />
    <text
       xml:space="preserve"
       style="font-style:normal;font-variant:normal;font-weight:normal;font-stretch:normal;font-size:15.53876495px;line-height:125%;font-family:'Marr Sans';-inkscape-font-specification:'Marr Sans';text-align:center;letter-spacing:0px;word-spacing:0px;text-anchor:middle;fill:#ffffff;fill-opacity:1;stroke:none;stroke-width:1px;stroke-linecap:butt;stroke-linejoin:miter;stroke-opacity:1"
       x="262.57938"
       y="272.58142"
       id="text7039-37"
       sodipodi:linespacing="125%"
       transform="scale(1.0093442,0.9907423)"><tspan
         sodipodi:role="line"
         id="tspan7041-0"
         x="262.57938"
         y="272.58142">fmOscillator</tspan></text>
    <rect
       style="fill:none;fill-opacity:1;stroke:#ffffff;stroke-width:1.99999988;stroke-miterlimit:4;stroke-dasharray:none;stroke-dashoffset:0;stroke-opacity:1"
       id="rect7037-5-2"
       width="95.964493"
       height="35.989941"
       x="217.61819"
       y="322.52701" />
    <text
       xml:space="preserve"
       style="font-style:normal;font-variant:normal;font-weight:normal;font-stretch:normal;font-size:15.53876495px;line-height:125%;font-family:'Marr Sans';-inkscape-font-specification:'Marr Sans';text-align:center;letter-spacing:0px;word-spacing:0px;text-anchor:middle;fill:#ffffff;fill-opacity:1;stroke:none;stroke-width:1px;stroke-linecap:butt;stroke-linejoin:miter;stroke-opacity:1"
       x="262.57938"
       y="348.86127"
       id="text7039-37-2"
       sodipodi:linespacing="125%"
       transform="scale(1.0093442,0.9907423)"><tspan
         sodipodi:role="line"
         id="tspan7041-0-5"
         x="262.57938"
         y="348.86127">sawOsillator</tspan></text>
    <rect
<<<<<<< HEAD
       style="fill:none;fill-opacity:1;stroke:url(#linearGradient7439);stroke-width:1.99999988;stroke-miterlimit:4;stroke-dasharray:none;stroke-dashoffset:0;stroke-opacity:1"
=======
       style="fill:none;fill-opacity:1;stroke:#ffffff;stroke-width:1.99999988;stroke-miterlimit:4;stroke-dasharray:none;stroke-dashoffset:0;stroke-opacity:1"
>>>>>>> d576066728f97bfb0233e72a2b482ceec1b228f6
       id="rect7037-2-4-3"
       width="95.964493"
       height="35.989941"
       x="217.61819"
       y="178.63853" />
    <text
       xml:space="preserve"
       style="font-style:normal;font-variant:normal;font-weight:normal;font-stretch:normal;font-size:13.75px;line-height:125%;font-family:'Marr Sans';-inkscape-font-specification:'Marr Sans';text-align:center;letter-spacing:0px;word-spacing:0px;text-anchor:middle;fill:#ffffff;fill-opacity:1;stroke:none;stroke-width:1px;stroke-linecap:butt;stroke-linejoin:miter;stroke-opacity:1"
       x="262.57944"
       y="203.62828"
       id="text7039-2-6-9"
       sodipodi:linespacing="125%"
       transform="scale(1.0093442,0.9907423)"><tspan
         sodipodi:role="line"
         x="262.57944"
         y="203.62828"
         id="tspan7085-2-0">modEnvelope</tspan></text>
    <rect
<<<<<<< HEAD
       style="fill:none;fill-opacity:1;stroke:url(#linearGradient7441);stroke-width:1.99999988;stroke-miterlimit:4;stroke-dasharray:none;stroke-dashoffset:0;stroke-opacity:1"
=======
       style="fill:none;fill-opacity:1;stroke:#ffffff;stroke-width:1.99999988;stroke-miterlimit:4;stroke-dasharray:none;stroke-dashoffset:0;stroke-opacity:1"
>>>>>>> d576066728f97bfb0233e72a2b482ceec1b228f6
       id="rect7037-2-4-3-8"
       width="95.964493"
       height="35.989941"
       x="488.91388"
       y="178.63853" />
    <text
       xml:space="preserve"
       style="font-style:normal;font-variant:normal;font-weight:normal;font-stretch:normal;font-size:13.75px;line-height:125%;font-family:'Marr Sans';-inkscape-font-specification:'Marr Sans';text-align:center;letter-spacing:0px;word-spacing:0px;text-anchor:middle;fill:#ffffff;fill-opacity:1;stroke:none;stroke-width:1px;stroke-linecap:butt;stroke-linejoin:miter;stroke-opacity:1"
       x="531.36359"
       y="203.62828"
       id="text7039-2-6-9-3"
       sodipodi:linespacing="125%"
       transform="scale(1.0093442,0.9907423)"><tspan
         sodipodi:role="line"
         x="531.36359"
         y="203.62828"
         id="tspan7085-2-0-7">filterEnvelope</tspan></text>
    <path
<<<<<<< HEAD
       style="fill:none;fill-rule:evenodd;stroke:url(#linearGradient7415);stroke-width:2;stroke-linecap:butt;stroke-linejoin:miter;stroke-opacity:1;stroke-miterlimit:4;stroke-dasharray:none"
=======
       style="fill:none;fill-rule:evenodd;stroke:#ffffff;stroke-width:2;stroke-linecap:butt;stroke-linejoin:miter;stroke-opacity:1;stroke-miterlimit:4;stroke-dasharray:none"
>>>>>>> d576066728f97bfb0233e72a2b482ceec1b228f6
       d="m 265.60043,214.62848 0,32.32486"
       id="path7198"
       inkscape:connector-curvature="0" />
    <path
<<<<<<< HEAD
       style="fill:#ffffff;fill-opacity:1;stroke:url(#linearGradient7397);stroke-width:2;stroke-miterlimit:4;stroke-dasharray:none;stroke-dashoffset:0;stroke-opacity:1"
=======
       style="fill:#ffffff;fill-opacity:1;stroke:#ffffff;stroke-width:2;stroke-miterlimit:4;stroke-dasharray:none;stroke-dashoffset:0;stroke-opacity:1"
>>>>>>> d576066728f97bfb0233e72a2b482ceec1b228f6
       d="m 536.89612,214.62848 0,32.32484"
       id="path7200"
       inkscape:connector-curvature="0" />
    <path
<<<<<<< HEAD
       style="fill:#ffffff;fill-opacity:1;stroke:url(#linearGradient7403);stroke-width:2;stroke-miterlimit:4;stroke-dasharray:none;stroke-dashoffset:0;stroke-opacity:1"
=======
       style="fill:#ffffff;fill-opacity:1;stroke:#ffffff;stroke-width:2;stroke-miterlimit:4;stroke-dasharray:none;stroke-dashoffset:0;stroke-opacity:1"
>>>>>>> d576066728f97bfb0233e72a2b482ceec1b228f6
       d="m 584.37329,264.9483 25.73853,0"
       id="path7202"
       inkscape:connector-curvature="0" />
    <rect
<<<<<<< HEAD
       style="fill:none;fill-opacity:1;stroke:url(#linearGradient7421);stroke-width:1.99999988;stroke-miterlimit:4;stroke-dasharray:none;stroke-dashoffset:0;stroke-opacity:1"
=======
       style="fill:none;fill-opacity:1;stroke:#ffffff;stroke-width:1.99999988;stroke-miterlimit:4;stroke-dasharray:none;stroke-dashoffset:0;stroke-opacity:1"
>>>>>>> d576066728f97bfb0233e72a2b482ceec1b228f6
       id="rect7037-5-3"
       width="95.964493"
       height="35.989941"
       x="351.81754"
       y="246.95334" />
    <text
       xml:space="preserve"
       style="font-style:normal;font-variant:normal;font-weight:normal;font-stretch:normal;font-size:15.53876495px;line-height:125%;font-family:'Marr Sans';-inkscape-font-specification:'Marr Sans';text-align:center;letter-spacing:0px;word-spacing:0px;text-anchor:middle;fill:#ffffff;fill-opacity:1;stroke:none;stroke-width:1px;stroke-linecap:butt;stroke-linejoin:miter;stroke-opacity:1"
       x="395.53632"
       y="272.58142"
       id="text7039-37-9"
       sodipodi:linespacing="125%"
       transform="scale(1.0093442,0.9907423)"><tspan
         sodipodi:role="line"
         id="tspan7041-0-7"
         x="395.53632"
         y="272.58142">mixer</tspan></text>
    <path
<<<<<<< HEAD
       style="fill:none;fill-opacity:1;stroke:url(#linearGradient7377);stroke-width:2;stroke-miterlimit:4;stroke-dasharray:none;stroke-dashoffset:0;stroke-opacity:1"
=======
       style="fill:none;fill-opacity:1;stroke:#ffffff;stroke-width:2;stroke-miterlimit:4;stroke-dasharray:none;stroke-dashoffset:0;stroke-opacity:1"
>>>>>>> d576066728f97bfb0233e72a2b482ceec1b228f6
       d="m 313.5827,339.84992 17.98502,0 0,-65.14761 20.24982,0"
       id="path7225"
       inkscape:connector-curvature="0"
       sodipodi:nodetypes="cccc" />
    <path
<<<<<<< HEAD
       style="fill:none;fill-opacity:1;stroke:url(#linearGradient7385);stroke-width:2;stroke-miterlimit:4;stroke-dasharray:none;stroke-dashoffset:0;stroke-opacity:1"
=======
       style="fill:none;fill-opacity:1;stroke:#ffffff;stroke-width:2;stroke-miterlimit:4;stroke-dasharray:none;stroke-dashoffset:0;stroke-opacity:1"
>>>>>>> d576066728f97bfb0233e72a2b482ceec1b228f6
       d="m 313.5827,256.9483 38.23484,0"
       id="path7227"
       inkscape:connector-curvature="0"
       sodipodi:nodetypes="cc" />
    <path
<<<<<<< HEAD
       style="fill:none;fill-opacity:1;stroke:url(#linearGradient7391);stroke-width:2;stroke-miterlimit:4;stroke-dasharray:none;stroke-dashoffset:0;stroke-opacity:1"
=======
       style="fill:none;fill-opacity:1;stroke:#ffffff;stroke-width:2;stroke-miterlimit:4;stroke-dasharray:none;stroke-dashoffset:0;stroke-opacity:1"
>>>>>>> d576066728f97bfb0233e72a2b482ceec1b228f6
       d="m 447.78204,264.9483 40.62674,0"
       id="path7229"
       inkscape:connector-curvature="0" />
    <path
<<<<<<< HEAD
       style="fill:none;fill-opacity:1;stroke:url(#linearGradient7459);stroke-width:2;stroke-miterlimit:4;stroke-dasharray:none;stroke-dashoffset:0;stroke-opacity:1"
=======
       style="fill:none;fill-opacity:1;stroke:#ffffff;stroke-width:2;stroke-miterlimit:4;stroke-dasharray:none;stroke-dashoffset:0;stroke-opacity:1"
>>>>>>> d576066728f97bfb0233e72a2b482ceec1b228f6
       d="m 127.27921,340.52197 44.18013,0 0,-76.15584 46.15885,0"
       id="path7231"
       inkscape:connector-curvature="0" />
    <path
<<<<<<< HEAD
       style="fill:none;fill-opacity:1;stroke:url(#linearGradient7457);stroke-width:2;stroke-miterlimit:4;stroke-dasharray:none;stroke-dashoffset:0;stroke-opacity:1"
=======
       style="fill:none;fill-opacity:1;stroke:#ffffff;stroke-width:2;stroke-miterlimit:4;stroke-dasharray:none;stroke-dashoffset:0;stroke-opacity:1"
>>>>>>> d576066728f97bfb0233e72a2b482ceec1b228f6
       d="m 171.45934,340.52197 46.15885,0"
       id="path7233"
       inkscape:connector-curvature="0" />
    <path
<<<<<<< HEAD
       style="fill:none;fill-opacity:1;stroke:url(#linearGradient7349);stroke-width:2;stroke-miterlimit:4;stroke-dasharray:none;stroke-dashoffset:0;stroke-opacity:1"
=======
       style="fill:none;fill-opacity:1;stroke:#ffffff;stroke-width:2;stroke-miterlimit:4;stroke-dasharray:none;stroke-dashoffset:0;stroke-opacity:1"
>>>>>>> d576066728f97bfb0233e72a2b482ceec1b228f6
       d="m 127.27921,198.19138 48.95949,0 0,-41.36072 362.0361,0 0,21.80787"
       id="path7235"
       inkscape:connector-curvature="0" />
    <path
<<<<<<< HEAD
       style="fill:none;fill-opacity:1;stroke:url(#linearGradient7355);stroke-width:2;stroke-miterlimit:4;stroke-dasharray:none;stroke-dashoffset:0;stroke-opacity:1"
       d="m 265.60045,178.63853 0,-21.80787"
       id="path7237"
       inkscape:connector-curvature="0" />
    <rect
       style="fill:none;fill-opacity:1;stroke:url(#linearGradient7469);stroke-width:1.99999988;stroke-miterlimit:4;stroke-dasharray:none;stroke-dashoffset:0;stroke-opacity:1"
       id="rect7037-1"
       width="95.964493"
       height="35.989941"
       x="31.314716"
       y="322.52701" />
    <text
       xml:space="preserve"
       style="font-style:normal;font-variant:normal;font-weight:normal;font-stretch:normal;font-size:15.53876495px;line-height:125%;font-family:'Marr Sans';-inkscape-font-specification:'Marr Sans';text-align:center;letter-spacing:0px;word-spacing:0px;text-anchor:middle;fill:#ffffff;fill-opacity:1;stroke:none;stroke-width:1px;stroke-linecap:butt;stroke-linejoin:miter;stroke-opacity:1"
       x="78.000671"
       y="348.86127"
       id="text7039-0"
       sodipodi:linespacing="125%"
       transform="scale(1.0093442,0.9907423)"><tspan
         sodipodi:role="line"
         id="tspan7041-4"
         x="78.000671"
         y="348.86127">lfo 1</tspan></text>
    <path
       style="fill:none;fill-rule:evenodd;stroke:url(#linearGradient7461);stroke-width:2;stroke-linecap:butt;stroke-linejoin:miter;stroke-opacity:1;stroke-miterlimit:4;stroke-dasharray:none"
       d="m -11.919487,340.52197 43.234203,0"
       id="path7100"
       inkscape:connector-curvature="0" />
    <rect
       style="fill:none;fill-opacity:1;stroke:url(#linearGradient7475);stroke-width:1.99999988;stroke-miterlimit:4;stroke-dasharray:none;stroke-dashoffset:0;stroke-opacity:1"
       id="rect7037-5-2-6"
       width="95.964493"
       height="35.989941"
       x="217.23627"
       y="397.66113" />
    <text
       xml:space="preserve"
       style="font-style:normal;font-variant:normal;font-weight:normal;font-stretch:normal;font-size:15.53876495px;line-height:125%;font-family:'Marr Sans';-inkscape-font-specification:'Marr Sans';text-align:center;letter-spacing:0px;word-spacing:0px;text-anchor:middle;fill:#ffffff;fill-opacity:1;stroke:none;stroke-width:1px;stroke-linecap:butt;stroke-linejoin:miter;stroke-opacity:1"
       x="262.20099"
       y="424.69748"
       id="text7039-37-2-1"
       sodipodi:linespacing="125%"
       transform="scale(1.0093442,0.9907423)"><tspan
         sodipodi:role="line"
         id="tspan7041-0-5-6"
         x="262.20099"
         y="424.69748">noise</tspan></text>
    <path
       style="fill:none;fill-rule:evenodd;stroke:url(#linearGradient7379);stroke-width:2;stroke-linecap:butt;stroke-linejoin:miter;stroke-opacity:1;stroke-miterlimit:4;stroke-dasharray:none"
       d="m 331.56772,339.84992 0,75.80619 -18.36696,0"
       id="path7125"
       inkscape:connector-curvature="0" />
    <text
       xml:space="preserve"
       style="font-style:normal;font-weight:normal;font-size:7.5px;line-height:125%;font-family:sans-serif;letter-spacing:0px;word-spacing:0px;fill:url(#linearGradient7371);fill-opacity:1;stroke:none;stroke-width:1px;stroke-linecap:butt;stroke-linejoin:miter;stroke-opacity:1"
       x="102.68172"
       y="38.861145"
       id="text7317-8"
       sodipodi:linespacing="125%"><tspan
         sodipodi:role="line"
         id="tspan7319-5"
         x="102.68172"
         y="38.861145"
         style="font-size:15px;fill:url(#linearGradient7371);fill-opacity:1;stroke:none">audio</tspan></text>
    <text
       xml:space="preserve"
       style="font-style:normal;font-weight:normal;font-size:7.5px;line-height:125%;font-family:sans-serif;letter-spacing:0px;word-spacing:0px;fill:url(#linearGradient7535);fill-opacity:1;stroke:none;stroke-width:1px;stroke-linecap:butt;stroke-linejoin:miter;stroke-opacity:1"
       x="176.23869"
       y="148.83066"
       id="text7479"
       sodipodi:linespacing="125%"><tspan
         sodipodi:role="line"
         id="tspan7481"
         x="176.23869"
         y="148.83066"
         style="font-size:12.5px;fill:url(#linearGradient7535);fill-opacity:1">~dcOutputBus</tspan></text>
    <path
       style="fill:none;fill-opacity:1;stroke:url(#linearGradient7457-0);stroke-width:2;stroke-miterlimit:4;stroke-dasharray:none;stroke-dashoffset:0;stroke-opacity:1"
       d="m 128.27921,593.7325 89.33898,0"
       id="path7233-7"
       inkscape:connector-curvature="0" />
    <rect
       style="fill:none;fill-opacity:1;stroke:url(#linearGradient7469-5);stroke-width:1.99999988;stroke-miterlimit:4;stroke-dasharray:none;stroke-dashoffset:0;stroke-opacity:1"
       id="rect7037-1-7"
       width="95.964493"
       height="35.989941"
       x="31.314716"
       y="575.73755" />
    <text
       xml:space="preserve"
       style="font-style:normal;font-variant:normal;font-weight:normal;font-stretch:normal;font-size:15.53876495px;line-height:125%;font-family:'Marr Sans';-inkscape-font-specification:'Marr Sans';text-align:center;letter-spacing:0px;word-spacing:0px;text-anchor:middle;fill:#ffffff;fill-opacity:1;stroke:none;stroke-width:1px;stroke-linecap:butt;stroke-linejoin:miter;stroke-opacity:1"
       x="78.000679"
       y="604.43787"
       id="text7039-0-4"
       sodipodi:linespacing="125%"
       transform="scale(1.0093442,0.9907423)"><tspan
         sodipodi:role="line"
         id="tspan7041-4-5"
         x="78.000679"
         y="604.43787">lfo2</tspan></text>
    <g
       id="g6428">
      <path
         inkscape:connector-curvature="0"
         id="path6426"
         d="m 217.61819,593.73249 310.73032,0 0,-307.29833"
         style="fill:none;fill-rule:evenodd;stroke:#000000;stroke-width:1px;stroke-linecap:butt;stroke-linejoin:miter;stroke-opacity:1" />
    </g>
    <use
       x="0"
       y="0"
       xlink:href="#g6428"
       id="use6431" />
    <path
       style="fill:none;fill-rule:evenodd;stroke:url(#linearGradient7256);stroke-width:2;stroke-miterlimit:4;stroke-dasharray:none"
       d="m 217.61819,593.73249 310.73032,0 0,-307.29833 0,0 0,0"
       id="path7250"
       inkscape:connector-curvature="0" />
=======
       style="fill:none;fill-opacity:1;stroke:#ffffff;stroke-width:2;stroke-miterlimit:4;stroke-dasharray:none;stroke-dashoffset:0;stroke-opacity:1"
       d="m 265.60045,178.63853 0,-21.80787"
       id="path7237"
       inkscape:connector-curvature="0" />
>>>>>>> d576066728f97bfb0233e72a2b482ceec1b228f6
  </g>
</svg>
